<svg width="26" height="27" viewBox="0 0 26 27" fill="none" xmlns="http://www.w3.org/2000/svg">
<rect width="34.834" height="1.93553" transform="matrix(0.707065 0.707149 -0.707065 0.707149 1.36816 0)" fill="white"/>
<rect x="26" y="1.36865" width="34.834" height="1.93553" transform="rotate(135 26 1.36865)" fill="white"/>
</svg>
